*-----------------------------------------------------------------------------
* <Rating>-75</Rating>
*-----------------------------------------------------------------------------
    SUBROUTINE E.AA.GET.LIMIT.REF(ARRANGEMENT.ID, LIMIT.REFERENCE, LIMIT.SERIAL, RETURN.ERROR)
*
* Subroutine Type : ENQUIRY
* Attached to     : AA.OVERVIEW-SUBHEADING.LIMIT.COLLATERAL
* Attached as     : BUILD.ROUTINE
* Primary Purpose : Routine to fetch the LIMIT.REFERNCE & LIMIT.SERIAL for the
*                   Supplied Arrangement ID
*
*
* Incoming:
* ---------
* 1. ARRANGEMENT.ID : Arrangement ID
*
* Outgoing:
* ---------
* 1. LIMIT.REFERENCE : Limit Reference
* 2. LIMIT.SERIAL    : Limit Serial Number
*
* Error Variables:
* ----------------
* 1. RETURN.ERROR    : Return Error
*
*-----------------------------------------------------------------------------------
* Modification History:
*
* 15 Nov 2013 - Sathish PS
*               New Development
*-----------------------------------------------------------------------------------
    $INSERT I_COMMON
    $INSERT I_EQUATE

    $INSERT I_GTS.COMMON
    $INSERT I_ENQUIRY.COMMON
    $INSERT I_F.ENQUIRY

    $INSERT I_F.AA.ARRANGEMENT
    $INSERT I_F.AA.LIMIT
    $INSERT I_F.ACCOUNT

    GOSUB INITIALISE
    GOSUB OPEN.FILES
    GOSUB CHECK.PRELIM.CONDITIONS
    IF PROCESS.GOAHEAD THEN
        GOSUB PROCESS
    END

    RETURN          ;* Program RETURN
*-----------------------------------------------------------------------------------
PROCESS:

    ACCOUNT.NO = R.ARRANGEMENT<AA.ARR.LINKED.APPL.ID>
    CALL F.READ(FN.ACCOUNT, ACCOUNT.NO, R.ACCOUNT, F.ACCOUNT, ERR.ACCOUNT)
    IF R.ACCOUNT THEN
        LIMIT.REF.IN.RECORD = R.ACCOUNT<AC.LIMIT.REF>
        LIMIT.REFERENCE = LIMIT.REF.IN.RECORD['.',1,1]
        LIMIT.SERIAL = LIMIT.REF.IN.RECORD['.',2,1]
    END
!
!    PROPERTY.CLASS = "LIMIT"
!    R.AA.LIMIT = ""
!    RET.ERROR = ""
!    CALL AA.GET.PROPERTY.RECORD("", ARRANGEMENT.ID, "","", PROPERTY.CLASS, "",R.AA.LIMIT , RET.ERROR)
!    IF RET.ERROR THEN
!        RETURN.ERROR = RET.ERROR
!        PROCESS.GOAHEAD = 0
!    END ELSE
!        LIMIT.REFERENCE = R.AA.LIMIT<AA.LIM.LIMIT.REFERENCE>
!        LIMIT.SERIAL = R.AA.LIMIT<AA.LIM.LIMIT.SERIAL>
!    END
! Also tried with SIM.READ...need to discuss with Ram/Sankar...
!    FILE.NAME = 'F.AA.ARR.LIMIT'
!    CALL SIM.READ(SIM.REF, FILE.NAME, ARRANGEMENT.ID, R.AA.LIMIT, "", "", "")
!    LIMIT.REFERENCE = R.AA.LIMIT<AA.LIM.LIMIT.REFERENCE>
!    LIMIT.SERIAL = R.AA.LIMIT<AA.LIM.LIMIT.SERIAL>
! Obviously doing something wrong - the above doesnt seem to work - so trying from Account record for now.

    RETURN
*-----------------------------------------------------------------------------------
* <New Subroutines>

* </New Subroutines>
*-----------------------------------------------------------------------------------*
*//////////////////////////////////////////////////////////////////////////////////*
*////////////////P R E  P R O C E S S  S U B R O U T I N E S //////////////////////*
*//////////////////////////////////////////////////////////////////////////////////*
INITIALISE:

    PROCESS.GOAHEAD = 1
    LIMIT.REFERENCE = ""
    LIMIT.SERIAL = ""
    RETURN.ERROR = ""

    RETURN          ;* From INITIALISE
*-----------------------------------------------------------------------------------
OPEN.FILES:

    FN.AA.ARRANGEMENT = "F.AA.ARRANGEMENT" ; F.AA.ARRANGEMENT = ""
    FN.ACCOUNT = "F.ACCOUNT" ; F.ACCOUNT = ""

    RETURN          ;* From OPEN.FILES
*-----------------------------------------------------------------------------------
CHECK.PRELIM.CONDITIONS:
*
* Check for any Pre requisite conditions - like the existence of a record/parameter etc
* if not, set PROCESS.GOAHEAD to 0

    LOOP.CNT = 1 ; MAX.LOOPS = 1
    LOOP
    WHILE LOOP.CNT LE MAX.LOOPS AND PROCESS.GOAHEAD DO

        BEGIN CASE
        CASE LOOP.CNT EQ 1
            GOSUB GET.ARRANGEMENT.RECORD
            IF NOT(R.ARRANGEMENT) THEN
                RETURN.ERROR = '1-AA.ARRANGEMENT.REC.MISSING'
                PROCESS.GOAHEAD = 0
            END

        END CASE
        LOOP.CNT += 1
    REPEAT

    RETURN          ;* From CHECK.PRELIM.CONDITIONS
*-----------------------------------------------------------------------------------
GET.ARRANGEMENT.RECORD:

    R.ARRANGEMENT = ""
    ERR.ARRANGEMENT = ""
    CALL F.READ(FN.AA.ARRANGEMENT, ARRANGEMENT.ID, R.ARRANGEMENT, F.AA.ARRANGEMENT, ERR.ARRANGEMENT)

    RETURN
*-----------------------------------------------------------------------------------
END

