* Version n dd/mm/yy  GLOBUS Release No. G14.0.01 14/08/03
* File Layout for SPOOL.BATCH.OUTPUT Created 30 JUL 03 at 12:01pm by whitep
*      PREFIX[SBO.]      SUFFIX[]
EQU SBO.BATCH.START.DATE TO 1,     SBO.BATCH.START.TIME TO 2, 
        SBO.DEST.PRINTER TO 3,     SBO.SPOOL.ALL.OUTPUT TO 4, 
           SBO.BANK.DATE TO 5,         SBO.COMPANY.CODE TO 6, 
       SBO.RECORD.STATUS TO 7,              SBO.CURR.NO TO 8, 
            SBO.INPUTTER TO 9,           SBO.DATE.TIME TO 10, 
         SBO.AUTHORISER TO 11,             SBO.CO.CODE TO 12, 
          SBO.DEPT.CODE TO 13,        SBO.AUDITOR.CODE TO 14, 
    SBO.AUDIT.DATE.TIME TO 15
