* I_F.SC.PARTIAL.STP Created 17 SEP 13 at 04:19PM by pooran/SEAT.USER
*      PREFIX[SC.PSTP]
               EQU SC.PSTP.TYPE TO 1,   ScPartialStp_Type TO 1,
             SC.PSTP.RESERVED.5 TO 2,   ScPartialStp_Reserved5 TO 2,
             SC.PSTP.RESERVED.4 TO 3,   ScPartialStp_Reserved4 TO 3,
             SC.PSTP.RESERVED.3 TO 4,   ScPartialStp_Reserved3 TO 4,
             SC.PSTP.RESERVED.2 TO 5,   ScPartialStp_Reserved2 TO 5,
             SC.PSTP.RESERVED.1 TO 6,   ScPartialStp_Reserved1 TO 6,
              SC.PSTP.LOCAL.REF TO 7,   ScPartialStp_LocalRef TO 7,
               SC.PSTP.OVERRIDE TO 8,   ScPartialStp_Override TO 8,
          SC.PSTP.RECORD.STATUS TO 9,   ScPartialStp_RecordStatus TO 9,
                SC.PSTP.CURR.NO TO 10,  ScPartialStp_CurrNo TO 10,
               SC.PSTP.INPUTTER TO 11,  ScPartialStp_Inputter TO 11,
              SC.PSTP.DATE.TIME TO 12,  ScPartialStp_DateTime TO 12,
             SC.PSTP.AUTHORISER TO 13,  ScPartialStp_Authoriser TO 13,
                SC.PSTP.CO.CODE TO 14,  ScPartialStp_CoCode TO 14,
              SC.PSTP.DEPT.CODE TO 15,  ScPartialStp_DeptCode TO 15,
           SC.PSTP.AUDITOR.CODE TO 16,  ScPartialStp_AuditorCode TO 16,
        SC.PSTP.AUDIT.DATE.TIME TO 17,  ScPartialStp_AuditDateTime TO 17
