* File Layout for DX.TRANSACTION.HISTORY Created 18 JUL 12 at 11:59AM by ambika
*      PREFIX[DX.TXH.]      SUFFIX[]
    EQU DX.TXH.PORT.CUST.ID TO 1, DxTransactionHistory_PortCustId TO 1, 
          DX.TXH.TRANS.DATE TO 2, DxTransactionHistory_TransDate TO 2, 
       DX.TXH.REVERSAL.DATE TO 3, DxTransactionHistory_ReversalDate TO 3, 
       DX.TXH.REVERSAL.TIME TO 4, DxTransactionHistory_ReversalTime TO 4, 
          DX.TXH.SOURCE.REF TO 5, DxTransactionHistory_SourceRef TO 5, 
       DX.TXH.CONTRACT.CODE TO 6, DxTransactionHistory_ContractCode TO 6, 
       DX.TXH.EXCHANGE.CODE TO 7, DxTransactionHistory_ExchangeCode TO 7, 
          DX.TXH.TRADE.DATE TO 8, DxTransactionHistory_TradeDate TO 8, 
       DX.TXH.MATURITY.DATE TO 9, DxTransactionHistory_MaturityDate TO 9, 
            DX.TXH.ACCOUNT TO 10, DxTransactionHistory_Account TO 10, 
         DX.TXH.EVENT.TYPE TO 11, DxTransactionHistory_EventType TO 11, 
       DX.TXH.LAST.REP.POS TO 12, DxTransactionHistory_LastRepPos TO 12, 
         DX.TXH.TRANS.NAME TO 13, DxTransactionHistory_TransName TO 13, 
           DX.TXH.BUY.SELL TO 14, DxTransactionHistory_BuySell TO 14, 
           DX.TXH.CALL.PUT TO 15, DxTransactionHistory_CallPut TO 15, 
               DX.TXH.LOTS TO 16, DxTransactionHistory_Lots TO 16, 
      DX.TXH.ORIGINAL.LOTS TO 17, DxTransactionHistory_OriginalLots TO 17, 
              DX.TXH.PRICE TO 18, DxTransactionHistory_Price TO 18, 
          DX.TXH.INT.PRICE TO 19, DxTransactionHistory_IntPrice TO 19, 
       DX.TXH.PRICE.OUTPUT TO 20, DxTransactionHistory_PriceOutput TO 20, 
             DX.TXH.STRIKE TO 21, DxTransactionHistory_Strike TO 21, 
         DX.TXH.INT.STRIKE TO 22, DxTransactionHistory_IntStrike TO 22, 
      DX.TXH.STRIKE.OUTPUT TO 23, DxTransactionHistory_StrikeOutput TO 23, 
         DX.TXH.TRANS.TIME TO 24, DxTransactionHistory_TransTime TO 24, 
     DX.TXH.SUB.ASSET.TYPE TO 25, DxTransactionHistory_SubAssetType TO 25, 
           DX.TXH.DEC.DATE TO 26, DxTransactionHistory_DecDate TO 26, 
      DX.TXH.PENDING.DIARY TO 27, DxTransactionHistory_PendingDiary TO 27, 
        DX.TXH.ENTITLEMENT TO 28, DxTransactionHistory_Entitlement TO 28, 
        DX.TXH.PREM.OFFSET TO 29, DxTransactionHistory_PremOffset TO 29, 
    DX.TXH.LAST.REVAL.LOTS TO 30, DxTransactionHistory_LastRevalLots TO 30, 
       DX.TXH.LOTS.SETTLED TO 31, DxTransactionHistory_LotsSettled TO 31, 
   DX.TXH.SETT.VAL.ACC.CCY TO 32, DxTransactionHistory_SettValAccCcy TO 32, 
   DX.TXH.SETT.VAL.REF.CCY TO 33, DxTransactionHistory_SettValRefCcy TO 33, 
      DX.TXH.LOTS.ACTIONED TO 34, DxTransactionHistory_LotsActioned TO 34, 
    DX.TXH.RESULTING.TRADE TO 35, DxTransactionHistory_ResultingTrade TO 35, 
       DX.TXH.INIT.MAR.CCY TO 36, DxTransactionHistory_InitMarCcy TO 36, 
       DX.TXH.INIT.ACCOUNT TO 37, DxTransactionHistory_InitAccount TO 37, 
     DX.TXH.INITIAL.MARGIN TO 38, DxTransactionHistory_InitialMargin TO 38, 
        DX.TXH.IM.EXC.RATE TO 39, DxTransactionHistory_ImExcRate TO 39, 
   DX.TXH.INIT.MAR.REF.CCY TO 40, DxTransactionHistory_InitMarRefCcy TO 40, 
        DX.TXH.VAR.MAR.CCY TO 41, DxTransactionHistory_VarMarCcy TO 41, 
        DX.TXH.VAR.ACCOUNT TO 42, DxTransactionHistory_VarAccount TO 42, 
         DX.TXH.VAR.MARGIN TO 43, DxTransactionHistory_VarMargin TO 43, 
        DX.TXH.VM.EXC.RATE TO 44, DxTransactionHistory_VmExcRate TO 44, 
    DX.TXH.VAR.MAR.REF.CCY TO 45, DxTransactionHistory_VarMarRefCcy TO 45, 
         DX.TXH.APP.STATUS TO 46, DxTransactionHistory_AppStatus TO 46, 
           DX.TXH.STRATEGY TO 47, DxTransactionHistory_Strategy TO 47, 
          DX.TXH.CUST.TYPE TO 48, DxTransactionHistory_CustType TO 48, 
        DX.TXH.CUST.STATUS TO 49, DxTransactionHistory_CustStatus TO 49, 
         DX.TXH.TRASETTNOS TO 50, DxTransactionHistory_Trasettnos TO 50, 
        DX.TXH.TRASETTLOTS TO 51, DxTransactionHistory_Trasettlots TO 51, 
            DX.TXH.CO.DATE TO 52, DxTransactionHistory_CoDate TO 52, 
         DX.TXH.CO.PV.DATE TO 53, DxTransactionHistory_CoPvDate TO 53, 
            DX.TXH.CO.TYPE TO 54, DxTransactionHistory_CoType TO 54, 
        DX.TXH.CO.STMT.NOS TO 55, DxTransactionHistory_CoStmtNos TO 55, 
         DX.TXH.OPEN.CLOSE TO 56, DxTransactionHistory_OpenClose TO 56, 
        DX.TXH.HEDGE.TRADE TO 57, DxTransactionHistory_HedgeTrade TO 57, 
               DX.TXH.LINK TO 58, DxTransactionHistory_Link TO 58, 
         DX.TXH.ALLOW.SETT TO 59, DxTransactionHistory_AllowSett TO 59, 
           DX.TXH.COMM.TYP TO 60, DxTransactionHistory_CommTyp TO 60, 
           DX.TXH.COMM.CDE TO 61, DxTransactionHistory_CommCde TO 61, 
           DX.TXH.COMM.CCY TO 62, DxTransactionHistory_CommCcy TO 62, 
           DX.TXH.COMM.AMT TO 63, DxTransactionHistory_CommAmt TO 63, 
           DX.TXH.COMM.ACC TO 64, DxTransactionHistory_CommAcc TO 64, 
           DX.TXH.CACC.CCY TO 65, DxTransactionHistory_CaccCcy TO 65, 
           DX.TXH.COMM.EXC TO 66, DxTransactionHistory_CommExc TO 66, 
           DX.TXH.CACC.AMT TO 67, DxTransactionHistory_CaccAmt TO 67, 
           DX.TXH.COMM.TAX TO 68, DxTransactionHistory_CommTax TO 68, 
        DX.TXH.CHARGE.DATE TO 69, DxTransactionHistory_ChargeDate TO 69, 
            DX.TXH.REF.CCY TO 70, DxTransactionHistory_RefCcy TO 70, 
            DX.TXH.ACC.CCY TO 71, DxTransactionHistory_AccCcy TO 71, 
        DX.TXH.EX.RATE.REF TO 72, DxTransactionHistory_ExRateRef TO 72, 
        DX.TXH.EX.RATE.ACC TO 73, DxTransactionHistory_ExRateAcc TO 73, 
           DX.TXH.OVE.ADDR TO 74, DxTransactionHistory_OveAddr TO 74, 
           DX.TXH.MESS.CTL TO 75, DxTransactionHistory_MessCtl TO 75, 
            DX.TXH.DLV.KEY TO 76, DxTransactionHistory_DlvKey TO 76, 
           DX.TXH.ORDER.NO TO 77, DxTransactionHistory_OrderNo TO 77, 
          DX.TXH.CUST.NARR TO 78, DxTransactionHistory_CustNarr TO 78, 
         DX.TXH.CONSTRAINT TO 79, DxTransactionHistory_Constraint TO 79, 
       DX.TXH.COUNTERPARTY TO 80, DxTransactionHistory_Counterparty TO 80, 
           DX.TXH.CUSTOMER TO 81, DxTransactionHistory_Customer TO 81, 
        DX.TXH.DEALER.DESK TO 82, DxTransactionHistory_DealerDesk TO 82, 
  DX.TXH.DEPT.ACCT.OFFICER TO 83, DxTransactionHistory_DeptAcctOfficer TO 83, 
           DX.TXH.OWN.BOOK TO 84, DxTransactionHistory_OwnBook TO 84, 
        DX.TXH.PRODUCT.CAT TO 85, DxTransactionHistory_ProductCat TO 85, 
       DX.TXH.RV.UPDATE.ID TO 86, DxTransactionHistory_RvUpdateId TO 86, 
      DX.TXH.STATEMENT.NOS TO 87, DxTransactionHistory_StatementNos TO 87, 
         DX.TXH.CHG.OFFSET TO 88, DxTransactionHistory_ChgOffset TO 88, 
           DX.TXH.CUST.REF TO 89, DxTransactionHistory_CustRef TO 89, 
     DX.TXH.UOPT.PANDL.CCY TO 90, DxTransactionHistory_UoptPandlCcy TO 90, 
       DX.TXH.UOPT.ACCOUNT TO 91, DxTransactionHistory_UoptAccount TO 91, 
         DX.TXH.UOPT.PANDL TO 92, DxTransactionHistory_UoptPandl TO 92, 
 DX.TXH.UOPT.PANDL.REF.CCY TO 93, DxTransactionHistory_UoptPandlRefCcy TO 93, 
       DX.TXH.TRA.PND.SETT TO 94, DxTransactionHistory_TraPndSett TO 94, 
       DX.TXH.TRA.PND.LOTS TO 95, DxTransactionHistory_TraPndLots TO 95, 
       DX.TXH.TRA.PND.STMT TO 96, DxTransactionHistory_TraPndStmt TO 96, 
      DX.TXH.ACTIVITY.CODE TO 97, DxTransactionHistory_ActivityCode TO 97, 
      DX.TXH.ACTIVITY.DATE TO 98, DxTransactionHistory_ActivityDate TO 98, 
     DX.TXH.ACT.EVENT.TYPE TO 99, DxTransactionHistory_ActEventType TO 99, 
           DX.TXH.MESSAGE TO 100, DxTransactionHistory_Message TO 100, 
       DX.TXH.MESSAGE.MAP TO 101, DxTransactionHistory_MessageMap TO 101, 
      DX.TXH.MESSAGE.DATE TO 102, DxTransactionHistory_MessageDate TO 102, 
       DX.TXH.MESSAGE.REF TO 103, DxTransactionHistory_MessageRef TO 103, 
         DX.TXH.REVAL.KEY TO 104, DxTransactionHistory_RevalKey TO 104, 
    DX.TXH.PREV.REVAL.KEY TO 105, DxTransactionHistory_PrevRevalKey TO 105, 
       DX.TXH.PREV.VM.CCY TO 106, DxTransactionHistory_PrevVmCcy TO 106, 
       DX.TXH.PREV.VM.ACC TO 107, DxTransactionHistory_PrevVmAcc TO 107, 
           DX.TXH.PREV.VM TO 108, DxTransactionHistory_PrevVm TO 108, 
       DX.TXH.PREV.VM.EXC TO 109, DxTransactionHistory_PrevVmExc TO 109, 
   DX.TXH.PREV.VM.REF.CCY TO 110, DxTransactionHistory_PrevVmRefCcy TO 110, 
     DX.TXH.PREV.UNPL.CCY TO 111, DxTransactionHistory_PrevUnplCcy TO 111, 
     DX.TXH.PREV.UNPL.ACC TO 112, DxTransactionHistory_PrevUnplAcc TO 112, 
         DX.TXH.PREV.UNPL TO 113, DxTransactionHistory_PrevUnpl TO 113, 
 DX.TXH.PREV.UNPL.REF.CCY TO 114, DxTransactionHistory_PrevUnplRefCcy TO 114, 
       DX.TXH.PREV.IM.CCY TO 115, DxTransactionHistory_PrevImCcy TO 115, 
       DX.TXH.PREV.IM.ACC TO 116, DxTransactionHistory_PrevImAcc TO 116, 
           DX.TXH.PREV.IM TO 117, DxTransactionHistory_PrevIm TO 117, 
       DX.TXH.PREV.IM.EXC TO 118, DxTransactionHistory_PrevImExc TO 118, 
   DX.TXH.PREV.IM.REF.CCY TO 119, DxTransactionHistory_PrevImRefCcy TO 119, 
   DX.TXH.LIMIT.REFERENCE TO 120, DxTransactionHistory_LimitReference TO 120, 
 DX.TXH.ORIG.LIMIT.AMOUNT TO 121, DxTransactionHistory_OrigLimitAmount TO 121, 
         DX.TXH.TRADE.CCY TO 122, DxTransactionHistory_TradeCcy TO 122, 
     DX.TXH.CONTRACT.SIZE TO 123, DxTransactionHistory_ContractSize TO 123, 
     DX.TXH.PREM.POST.TXN TO 124, DxTransactionHistory_PremPostTxn TO 124, 
     DX.TXH.PREM.POST.AMT TO 125, DxTransactionHistory_PremPostAmt TO 125, 
   DX.TXH.CURRENCY.MARKET TO 126, DxTransactionHistory_CurrencyMarket TO 126, 
     DX.TXH.POSITION.TYPE TO 127, DxTransactionHistory_PositionType TO 127, 
       DX.TXH.PRIMARY.TXN TO 128, DxTransactionHistory_PrimaryTxn TO 128, 
         DX.TXH.SOURCE.ID TO 129, DxTransactionHistory_SourceId TO 129, 
      DX.TXH.ONL.TXN.LINK TO 130, DxTransactionHistory_OnlTxnLink TO 130, 
        DX.TXH.EST.IM.CCY TO 131, DxTransactionHistory_EstImCcy TO 131, 
            DX.TXH.EST.IM TO 132, DxTransactionHistory_EstIm TO 132, 
       DX.TXH.EST.IM.ACCT TO 133, DxTransactionHistory_EstImAcct TO 133, 
     DX.TXH.SC.BLOCK.INFO TO 134, DxTransactionHistory_ScBlockInfo TO 134, 
       DX.TXH.SC.BLOCKAMT TO 135, DxTransactionHistory_ScBlockamt TO 135, 
      DX.TXH.PRI.PREM.EXC TO 136, DxTransactionHistory_PriPremExc TO 136, 
         DX.TXH.BASE.LOTS TO 137, DxTransactionHistory_BaseLots TO 137, 
    DX.TXH.ORIGINAL.PRICE TO 138, DxTransactionHistory_OriginalPrice TO 138, 
      DX.TXH.CPARTY.PRICE TO 139, DxTransactionHistory_CpartyPrice TO 139, 
     DX.TXH.CPARTY.IPRICE TO 140, DxTransactionHistory_CpartyIprice TO 140, 
    DX.TXH.FAR.CO.PV.DATE TO 141, DxTransactionHistory_FarCoPvDate TO 141, 
     DX.TXH.PREM.VAL.DATE TO 142, DxTransactionHistory_PremValDate TO 142, 
         DX.TXH.LOCAL.REF TO 143, DxTransactionHistory_LocalRef TO 143, 
          DX.TXH.NET.COST TO 144, DxTransactionHistory_NetCost TO 144, 
       DX.TXH.OPTION.TYPE TO 145, DxTransactionHistory_OptionType TO 145, 
      DX.TXH.USR.FLD.NAME TO 146, DxTransactionHistory_UsrFldName TO 146, 
       DX.TXH.USR.FLD.VAL TO 147, DxTransactionHistory_UsrFldVal TO 147, 
      DX.TXH.USR.FLD.TEXT TO 148, DxTransactionHistory_UsrFldText TO 148, 
     DX.TXH.USR.FLD.PRICE TO 149, DxTransactionHistory_UsrFldPrice TO 149, 
     DX.TXH.DAYS.PER.YEAR TO 150, DxTransactionHistory_DaysPerYear TO 150, 
       DX.TXH.SPREAD.RATE TO 151, DxTransactionHistory_SpreadRate TO 151, 
    DX.TXH.SWAP.REFERENCE TO 152, DxTransactionHistory_SwapReference TO 152, 
         DX.TXH.CAP.FLOOR TO 153, DxTransactionHistory_CapFloor TO 153, 
    DX.TXH.HEDGE.PL.CATEG TO 154, DxTransactionHistory_HedgePlCateg TO 154, 
 DX.TXH.BUY.FLOATING.RATE TO 155, DxTransactionHistory_BuyFloatingRate TO 155, 
DX.TXH.SELL.FLOATING.RATE TO 156, DxTransactionHistory_SellFloatingRate TO 156, 
  DX.TXH.MASTER.AGREEMENT TO 157, DxTransactionHistory_MasterAgreement TO 157, 
  DX.TXH.PERIOD.FREQUENCY TO 158, DxTransactionHistory_PeriodFrequency TO 158, 
      DX.TXH.PERIOD.START TO 159, DxTransactionHistory_PeriodStart TO 159, 
   DX.TXH.PERIOD.END.DATE TO 160, DxTransactionHistory_PeriodEndDate TO 160, 
   DX.TXH.PERIOD.FIX.DATE TO 161, DxTransactionHistory_PeriodFixDate TO 161, 
   DX.TXH.PERIOD.PAY.DATE TO 162, DxTransactionHistory_PeriodPayDate TO 162, 
    DX.TXH.PREM.PYMT.FREQ TO 163, DxTransactionHistory_PremPymtFreq TO 163, 
    DX.TXH.PREM.PYMT.DATE TO 164, DxTransactionHistory_PremPymtDate TO 164, 
     DX.TXH.PREM.PYMT.AMT TO 165, DxTransactionHistory_PremPymtAmt TO 165, 
     DX.TXH.LOTS.TRANSFER TO 166, DxTransactionHistory_LotsTransfer TO 166, 
         DX.TXH.DEST.CUST TO 167, DxTransactionHistory_DestCust TO 167, 
    DX.TXH.DEST.PORTFOLIO TO 168, DxTransactionHistory_DestPortfolio TO 168, 
    DX.TXH.DEST.CUST.PORT TO 169, DxTransactionHistory_DestCustPort TO 169, 
       DX.TXH.CUST.CPARTY TO 170, DxTransactionHistory_CustCparty TO 170, 
      DX.TXH.CUST.BNK.NME TO 171, DxTransactionHistory_CustBnkNme TO 171, 
      DX.TXH.CUST.BNK.ADD TO 172, DxTransactionHistory_CustBnkAdd TO 172, 
 DX.TXH.CUST.BNK.SORT.CDE TO 173, DxTransactionHistory_CustBnkSortCde TO 173, 
      DX.TXH.PRICE.TRADED TO 174, DxTransactionHistory_PriceTraded TO 174, 
               DX.TXH.FEE TO 175, DxTransactionHistory_Fee TO 175, 
            DX.TXH.ADVICE TO 176, DxTransactionHistory_Advice TO 176, 
      DX.TXH.EXOTIC.EVENT TO 177, DxTransactionHistory_ExoticEvent TO 177, 
     DX.TXH.CREATE.TRADES TO 178, DxTransactionHistory_CreateTrades TO 178, 
       DX.TXH.FILLED.LOTS TO 179, DxTransactionHistory_FilledLots TO 179, 
      DX.TXH.FILLED.PRICE TO 180, DxTransactionHistory_FilledPrice TO 180, 
     DX.TXH.FILLED.IPRICE TO 181, DxTransactionHistory_FilledIprice TO 181, 
       DX.TXH.RESERVED.X1 TO 182, DxTransactionHistory_ReservedX1 TO 182, 
        DX.TXH.NS.FWD.TXN TO 183, DxTransactionHistory_NsFwdTxn TO 183, 
            DX.TXH.XO.AMT TO 184, DxTransactionHistory_XoAmt TO 184, 
            DX.TXH.XO.CCY TO 185, DxTransactionHistory_XoCcy TO 185, 
        DX.TXH.XO.ACCOUNT TO 186, DxTransactionHistory_XoAccount TO 186, 
        DX.TXH.XO.ACC.CCY TO 187, DxTransactionHistory_XoAccCcy TO 187, 
        DX.TXH.XO.ACC.AMT TO 188, DxTransactionHistory_XoAccAmt TO 188, 
        DX.TXH.XO.EX.RATE TO 189, DxTransactionHistory_XoExRate TO 189, 
     DX.TXH.XO.ACC.V.DATE TO 190, DxTransactionHistory_XoAccVDate TO 190, 
           DX.TXH.XO.DATE TO 191, DxTransactionHistory_XoDate TO 191, 
         DX.TXH.XO.POSTED TO 192, DxTransactionHistory_XoPosted TO 192, 
           DX.TXH.RV.LINK TO 193, DxTransactionHistory_RvLink TO 193, 
            DX.TXH.REGION TO 194, DxTransactionHistory_Region TO 194, 
          DX.TXH.TAX.CODE TO 195, DxTransactionHistory_TaxCode TO 195, 
          DX.TXH.TAX.TYPE TO 196, DxTransactionHistory_TaxType TO 196, 
       DX.TXH.TAX.AMT.ACY TO 197, DxTransactionHistory_TaxAmtAcy TO 197, 
       DX.TXH.TAX.AMT.TCY TO 198, DxTransactionHistory_TaxAmtTcy TO 198, 
       DX.TXH.SY.DEAL.REF TO 199, DxTransactionHistory_SyDealRef TO 199, 
 DX.TXH.EXCLUDE.VALUATION TO 200, DxTransactionHistory_ExcludeValuation TO 200, 
   DX.TXH.CARRIER.ALLOWED TO 201, DxTransactionHistory_CarrierAllowed TO 201, 
     DX.TXH.VM.LCY.AMOUNT TO 202, DxTransactionHistory_VmLcyAmount TO 202, 
      DX.TXH.DELIVERY.CCY TO 203, DxTransactionHistory_DeliveryCcy TO 203,
      DX.TXH.OPTION.STYLE TO 204, DxTransactionHistory_OptionStyle TO 204,
       DX.TXH.AS.CURRENCY TO 205, DxTransactionHistory_AsCurrency TO 205,
      DX.TXH.AS.PRINCIPAL TO 206, DxTransactionHistory_AsPrincipal TO 206,
       DX.TXH.LB.CURRENCY TO 207, DxTransactionHistory_LbCurrency TO 207,
      DX.TXH.LB.PRINCIPAL TO 208, DxTransactionHistory_LbPrincipal TO 208
