* Version 2 23/12/93  GLOBUS Release No. 12.2.2 03/02/94
* File Layout for FT.SCC.TAPE.DATA Created 22 DEC 93 at 11:58am by dev
*      PREFIX[FT.SCT.]      SUFFIX[]
     EQU FT.SCT.ACCOUNT.NO TO 1,        FT.SCT.ACCOUNT.NAME TO 2, 
     FT.SCT.BANK.SORT.CODE TO 3,   FT.SCT.CONTRA.ACCOUNT.NO TO 4, 
   FT.SCT.CONTRA.ACCT.NAME TO 5,  FT.SCT.CONTRA.BNK.SRT.CDE TO 6, 
 FT.SCT.THIRD.BNK.SRT.CODE TO 7,        FT.SCT.SCC.TXN.CODE TO 8, 
       FT.SCT.SCC.CONSTANT TO 9,     FT.SCT.SCC.SPECIFIC.1 TO 10, 
    FT.SCT.SCC.SPECIFIC.2 TO 11,     FT.SCT.SCC.VARIABLE.1 TO 12, 
    FT.SCT.SCC.VARIABLE.2 TO 13,         FT.SCT.OUR.REF.NO TO 14, 
   FT.SCT.CLEARING.REF.NO TO 15,     FT.SCT.PRIMARY.DOC.NO TO 16, 
  FT.SCT.PRIMARY.DOC.DATE TO 17,    FT.SCT.TRANSFER.AMOUNT TO 18, 
 FT.SCT.TRANSFER.CURRENCY TO 19,    FT.SCT.PAYMENT.DETAILS TO 20, 
     FT.SCT.BK.TO.BK.INFO TO 21,       FT.SCT.GLOBUS.FT.NO TO 22, 
FT.SCT.GLOBUS.SYSTEM.DATE TO 23,     FT.SCT.ERROR.MESSAGES TO 24
