* Copyright(c) 2001 INFORMER SA Greece
* File layout for SCB.CD.REG.DIS created at 02/09/2002
*               PREFIX[SCB.CDRD]
 EQU SCB.CDRD.DISCRIPTION TO 1,
     SCB.CDRD.CD.TYPE TO 2,
     SCB.CDRD.CD.START.RANGE TO 3,
     SCB.CDRD.CD.END.RANGE TO 4,
     SCB.CDRD.SENDER TO 5,
     SCB.CDRD.RECEIVER TO 6,
     SCB.CDRD.STATUS TO 7,
     SCB.CDRD.RESERVED TO 12,
     SCB.CDRD.RECORD.STATUS TO 13,
     SCB.CDRD.CURR.NO TO 14,
     SCB.CDRD.INPUTTER TO 15,
     SCB.CDRD.DATE.TIME TO 16,
     SCB.CDRD.AUTHORISER TO 17,
     SCB.CDRD.CO.CODE TO 18,
     SCB.CDRD.DEPT.CODE TO 19,
     SCB.CDRD.AUDITOR.CODE TO 20,
     SCB.CDRD.AUDIT.DATE.TIME TO 21
