* Copyright(c) 2001 INFORMER SA Greece
* File layout for SCB.BOAT.DATA created at 16/10/2009
*               PREFIX[BOD]
 EQU BOD.BOAT.CODE TO 1,
     BOD.BOAT.NAME TO 2,
     BOD.RESERVED8 TO 3,
     BOD.RESERVED7 TO 4,
     BOD.RESERVED6 TO 5,
     BOD.RESERVED5 TO 6,
     BOD.RESERVED4 TO 7,
     BOD.RESERVED3 TO 8,
     BOD.RESERVED2 TO 9,
     BOD.RESERVED1 TO 10,
     BOD.RECORD.STATUS TO 11,
     BOD.CURR.NO TO 12,
     BOD.INPUTTER TO 13,
     BOD.DATE.TIME TO 14,
     BOD.AUTHORISER TO 15,
     BOD.CO.CODE TO 16,
     BOD.DEPT.CODE TO 17,
     BOD.AUDITOR.CODE TO 18,
     BOD.AUDIT.DATE.TIME TO 19
