
** ----- 00.01.2004 Pawel TEMENOS -----

   EQU   DLTT.PROCESS.TYPE TO 1,
         DLTT.DL.DEFINE.ACTION TO 2,
         DLTT.REPORT.DIR TO 3,
         DLTT.FILE.NAME TO 4,
         DLTT.RECORD.NAME TO 5,
         DLTT.RECORD.WITH TO 6,
         DLTT.DESCRIPTION TO 7,
         DLTT.NESTED.TRACE TO 8,
         DLTT.ROUTINE.DIR TO 9
