    SUBROUTINE BLD.FT.INTERNET.ERR(ENQ)

    $INCLUDE T24.BP I_COMMON
    $INCLUDE T24.BP I_EQUATE
    $INCLUDE T24.BP I_ENQUIRY.COMMON
    $INCLUDE T24.BP I_F.ACCOUNT
    $INCLUDE T24.BP I_F.FUNDS.TRANSFER
    $INCLUDE T24.BP I_USER.ENV.COMMON
*-------------------------------------------------------------------------
    FN.AC = 'FBNK.ACCOUNT' ; F.AC = ''
    CALL OPF(FN.AC,F.AC)

    FN.FT = 'FBNK.FUNDS.TRANSFER$HIS' ; F.FT = ''
    CALL OPF(FN.FT,F.FT)

    KEY.LIST="" ; SELECTED="" ;  ER.MSG=""

    LOCATE 'PROCESSING.DATE' IN ENQ<2,1> SETTING DAT.POS THEN
        PROCESSING.DATE = ENQ<4,DAT.POS>
    END
    WS.PROCESS.DAT = PROCESSING.DATE

    T.SEL = "SELECT ":FN.FT:" WITH TRANSACTION.TYPE EQ 'AC97' AND PROCESSING.DATE GE ":WS.PROCESS.DAT:" BY DATE.TIME"
    CALL EB.READLIST(T.SEL,KEY.LIST,"",SELECTED,ER.MSG)
    IF SELECTED THEN
        FOR I = 1 TO SELECTED
            CALL F.READ(FN.FT,KEY.LIST<I>,R.FT,F.FT,E1)
            WS.DB.ACCT.NO = R.FT<FT.DEBIT.ACCT.NO>
            WS.CR.ACCT.NO = R.FT<FT.CREDIT.ACCT.NO>
            WS.FT.AMT     = ABS(R.FT<FT.DEBIT.AMOUNT>)

            CALL F.READ(FN.AC,WS.DB.ACCT.NO,R.AC,F.AC,E2)
            WS.DB.OPEN.BAL = R.AC<AC.OPEN.CLEARED.BAL>
            WS.DB.AVAL.BAL = R.AC<AC.OPEN.AVAILABLE.BAL>
            WS.DB.DIF      = WS.DB.OPEN.BAL - WS.DB.AVAL.BAL
            WS.DB.DIF      = ABS(WS.DB.DIF)

            CALL F.READ(FN.AC,WS.CR.ACCT.NO,R.AC,F.AC,E3)

            WS.CR.OPEN.BAL = R.AC<AC.OPEN.CLEARED.BAL>
            WS.CR.AVAL.BAL = R.AC<AC.OPEN.AVAILABLE.BAL>
            WS.CR.DIF      = WS.CR.OPEN.BAL - WS.CR.AVAL.BAL
            WS.CR.DIF      = ABS(WS.CR.DIF)

            WS.AMT = WS.DB.DIF + WS.CR.DIF
*=================================================================
** IF WS.AMT NE '' AND WS.AMT NE '0' THEN
            IF (WS.FT.AMT EQ WS.DB.DIF) OR (WS.FT.AMT EQ WS.CR.DIF) THEN
                ENQ<2,I> = '@ID'
                ENQ<3,I> = 'EQ'
                ENQ<4,I> = KEY.LIST<I>
            END ELSE
                ENQ<2,I> = '@ID'
                ENQ<3,I> = 'EQ'
                ENQ<4,I> = 'DUMMY'
            END
        NEXT I
    END
    RETURN
END
