*-----------------------------------------------------------------------------
* <Rating>-20</Rating>
*-----------------------------------------------------------------------------
    SUBROUTINE BLD.STMT.DOKKI.E3(ENQ)

    $INCLUDE T24.BP I_COMMON
    $INCLUDE T24.BP I_EQUATE
    $INCLUDE T24.BP I_ENQUIRY.COMMON
    $INCLUDE T24.BP I_F.ACCOUNT
    $INCLUDE T24.BP I_F.STMT.ENTRY
    $INCLUDE T24.BP I_USER.ENV.COMMON
*-------------------------------------------------------------------------

    FN.AC   = 'FBNK.ACCOUNT'    ; F.AC   = ''
    FN.STMT = 'FBNK.STMT.ENTRY' ; F.STMT = ''

    CALL OPF(FN.AC,F.AC)
    CALL OPF(FN.STMT,F.STMT)

    KEY.LIST="" ; SELECTED="" ;  ER.MSG=""

    LOCATE 'OPENING.DATE' IN ENQ<2,1> SETTING DAT.POS THEN
        OPENING.DATE = ENQ<4,DAT.POS>
    END

    WS.BOOK.DATE = OPENING.DATE[1,6]:'03'

    T.SEL = "SELECT FBNK.STMT.E3 WITH BOOKING.DATE EQ ":WS.BOOK.DATE:" AND COMPANY.CODE EQ EG0010011 AND PRODUCT.CATEGORY IN (6511 6512)"
    CALL EB.READLIST(T.SEL,KEY.LIST,"",SELECTED,ER.MSG)
    IF SELECTED THEN
        FOR I = 1 TO SELECTED
            CALL F.READ(FN.STMT,KEY.LIST<I>,R.STMT,F.STMT,E1)
            WS.ACCT.NO      = R.STMT<AC.STE.ACCOUNT.NUMBER>

            CALL F.READ(FN.AC,WS.ACCT.NO,R.AC,F.AC,E2)
            WS.AC.OPEN.DATE = R.AC<AC.OPENING.DATE>

            IF WS.AC.OPEN.DATE EQ WS.BOOK.DATE THEN

                ENQ<2,I> = '@ID'
                ENQ<3,I> = 'EQ'
                ENQ<4,I> = WS.ACCT.NO

            END ELSE

                ENQ<2,I> = '@ID'
                ENQ<3,I> = 'EQ'
                ENQ<4,I> = 'DUMMY'

            END
        NEXT I
    END

    RETURN
END
