*-----------------------------------------------------------------------------
* <Rating>-55</Rating>
*-----------------------------------------------------------------------------
    PROGRAM CONV.CD.TEXT

    $INCLUDE T24.BP I_COMMON
    $INCLUDE T24.BP I_EQUATE
    $INCLUDE T24.BP I_F.USER
    $INCLUDE T24.BP I_F.CATEGORY
    $INCLUDE TEMENOS.BP I_F.SCB.CD.TYPES
    $INCLUDE TEMENOS.BP I_AC.LOCAL.REFS
    $INCLUDE T24.BP I_F.DEPT.ACCT.OFFICER
    $INCLUDE T24.BP I_F.CURRENCY
*-----------------------------------------------------------------------

**** OPENSEQ "/life/CAIRO/NT24/bnk/bnk.run/&SAVEDLISTS&" , "certicate2" TO BB THEN
    OPENSEQ "/home/signat" , "certicate2" TO BB THEN
        CLOSESEQ BB
        HUSH ON
***  EXECUTE 'DELETE ':"/life/CAIRO/NT24/bnk/bnk.run/&SAVEDLISTS&":' ':"certicate2"
        EXECUTE 'DELETE ':"/home/signat":' ':"certicate2"
        HUSH OFF
    END
****  OPENSEQ "/life/CAIRO/NT24/bnk/bnk.run/&SAVEDLISTS&" , "certicate2" TO BB ELSE
    OPENSEQ "/home/signat" , "certicate2" TO BB ELSE
        CREATE BB THEN
***** PRINT 'FILE CONV.SAVE.TXT CREATED IN /life/CAIRO/NT24/bnk/bnk.run/&SAVEDLISTS&'
            PRINT 'FILE CONV.SAVE.TXT CREATED IN /home/signat'
        END ELSE
******STOP 'Cannot create CONV.SAVE.TXT File IN /life/CAIRO/NT24/bnk/bnk.run/&SAVEDLISTS&'
            STOP 'Cannot create CONV.SAVE.TXT File IN /home/signat'
        END
    END
*----------------------------------------------------------------
    FN.ACC = 'F.SCB.CD.TYPES' ; F.ACC = '' ; R.ACC = ''

    CALL OPF(FN.ACC,F.ACC)

    FN.CATEG = 'F.CATEGORY' ; F.CATEG = '' ; R.CATEG = ''

    CALL OPF(FN.ACC,F.ACC)

*----------------------------------------------------------------
    KEY.LIST="" ; SELECTED="" ;  ER.MSG=""
    T.SEL = "SELECT ":FN.ACC:" WITH @ID EQ 'EGP-1000-1M-36M' OR @ID EQ 'EGP-1000-3M-36M' OR @ID EQ 'EGP-10000-36M' OR @ID EQ 'EGP-1000-60M' BY @ID"
    CALL EB.READLIST(T.SEL,KEY.LIST,"",SELECTED,ER.MSG)
    IF SELECTED THEN
        FOR I = 1 TO SELECTED
            CALL F.READ(FN.ACC,KEY.LIST<I>,R.ACC,F.ACC,E1)
            SCB.CAT = R.ACC<CD.TYPES.CATEGORY>
            CALL F.READ(FN.CATEG,SCB.CAT,R.CATEG,F.CATEG,E2)
            R1=R.ACC<CD.TYPES.DESCRIPTION,2>
            R2=R.ACC<CD.TYPES.CD.RATE>
            R3 = R.CATEG<EB.CAT.DESCRIPTION>
            ZZ = DCOUNT(R3,VM)
            R4 = ''
            IF KEY.LIST<I> = 'EGP-10000-36M' THEN
                R2=R2*3
                R2=DROUND(R2,2)
            END
            IF KEY.LIST<I> = 'EGP-1000-60M' THEN
                R2=R2*5
            END

            FOR II = 1 TO ZZ
                R4 := R3<1,II>:"|"
            NEXT II
*--------------------------------------------------------
*BB.DATA  = R1:","
            BB.DATA  = R2:"|":R4
*PRINT KEY.LIST<I>:" ":BB.DATA
            WRITESEQ BB.DATA TO BB ELSE
                PRINT " ERROR WRITE FILE "
            END
        NEXT I
    END
*************************************************************
*----------------------------------------------------------------
    KEY.LIST="" ; SELECTED="" ;  ER.MSG=""
    T.SEL = "SELECT ":FN.ACC:" WITH @ID EQ 'EGP-1000-6M-36M' OR @ID EQ 'EGP-1000-12M-36M' BY @ID"
    CALL EB.READLIST(T.SEL,KEY.LIST,"",SELECTED,ER.MSG)
    IF SELECTED THEN
        FOR I = 1 TO SELECTED
            CALL F.READ(FN.ACC,KEY.LIST<I>,R.ACC,F.ACC,E1)
            SCB.CAT = R.ACC<CD.TYPES.CATEGORY>
            CALL F.READ(FN.CATEG,SCB.CAT,R.CATEG,F.CATEG,E2)
            R1=R.ACC<CD.TYPES.DESCRIPTION,2>
            R2=R.ACC<CD.TYPES.CD.RATE>
            R3 = R.CATEG<EB.CAT.DESCRIPTION>
            ZZ = DCOUNT(R3,VM)
            R4 = ''
            IF KEY.LIST<I> = 'EGP-10000-36M' THEN
                R2=R2*3
                R2=DROUND(R2,2)
            END
            IF KEY.LIST<I> = 'EGP-1000-60M' THEN
                R2=R2*5
            END

            FOR II = 1 TO ZZ
                R4 := R3<1,II>:"|"
            NEXT II
*--------------------------------------------------------
*BB.DATA  = R1:","
            BB.DATA  = R2:"|":R4
*PRINT KEY.LIST<I>:" ":BB.DATA
            WRITESEQ BB.DATA TO BB ELSE
                PRINT " ERROR WRITE FILE "
            END
        NEXT I
    END
*************************************************************
END
