*-----------------------------------------------------------------------------
* <Rating>0</Rating>
*-----------------------------------------------------------------------------
    SUBROUTINE CONV.GET.DRMNT.DAT

    $INCLUDE T24.BP I_COMMON
    $INCLUDE T24.BP I_EQUATE
    $INCLUDE T24.BP I_F.COMPANY
    $INCLUDE T24.BP I_ENQUIRY.COMMON
    $INCLUDE T24.BP I_F.CUSTOMER
    $INCLUDE TEMENOS.BP I_CU.LOCAL.REFS
*------------------------------------------------
    CUST.ID = O.DATA

    FN.CUS = "FBNK.CUSTOMER"   ; F.CUS = ''
    CALL OPF(FN.CUS,F.CUS)

    CALL F.READ(FN.CUS,CUST.ID,R.CUS,F.CUS,ER.CUS)
    DRMNT.DATE = R.CUS< EB.CUS.LOCAL.REF><1,CULR.DRMNT.DATE>
    O.DATA = DRMNT.DATE
*------------------------------------------------
    RETURN
END
