*****NESSREEN AHMED 20/11/2011*********************
*-----------------------------------------------------------------------------
* <Rating>0</Rating>
*-----------------------------------------------------------------------------
    SUBROUTINE CONV.VALUE.DAT

    $INCLUDE T24.BP I_COMMON
    $INCLUDE T24.BP I_EQUATE
    $INCLUDE T24.BP I_ENQUIRY.COMMON
    $INCLUDE T24.BP I_F.FUNDS.TRANSFER
    $INCLUDE T24.BP I_F.LETTER.OF.CREDIT
    $INCLUDE T24.BP I_F.DRAWINGS
    $INCLUDE TEMENOS.BP I_F.SCB.TRANS.TODAY

    XX = O.DATA

    FN.LC = 'FBNK.LETTER.OF.CREDIT'
    F.LC = '' ; R.LC = ''
    CALL OPF(FN.LC,F.LC)

    FN.DR = 'FBNK.DRAWINGS'
    F.DR = '' ; R.DR = ''
    CALL OPF(FN.DR,F.DR)

    IF XX[1,2] EQ 'TF' THEN
        ID.USE = XX[1,14]
        CALL F.READ(FN.DR,ID.USE,R.DR,F.DR,E1.DR)
        DR.TYPE = R.DR<TF.DR.DRAWING.TYPE>
        VAL.DAT = R.DR<TF.DR.VALUE.DATE>
        MAT.DAT = R.DR<TF.DR.MATURITY.REVIEW>
        IF DR.TYPE EQ 'DP' THEN
            O.DATA = MAT.DAT
        END ELSE
            O.DATA = VAL.DAT
        END
    END

    RETURN
