*----------------------------------NI7OOOOOOOOOOOOOOO-------------------------------------------
    SUBROUTINE FUNDS.SADER2.GR(ENQ)
***  PROGRAM FUNDS.WARED
$INCLUDE T24.BP I_COMMON
$INCLUDE T24.BP I_EQUATE
$INCLUDE T24.BP I_ENQUIRY.COMMON
$INCLUDE T24.BP I_F.CUSTOMER
$INCLUDE T24.BP I_F.FUNDS.TRANSFER
$INCLUDE T24.BP I_USER.ENV.COMMON

    COMP = ID.COMPANY
    TEXT = COMP ; CALL REM
    FN.FT='FBNK.FUNDS.TRANSFER$HIS'
    F.FT=''
    CALL OPF(FN.FT,F.FT)
    TD = TODAY
* CALL CDT('',TD,"-1W")
* TD1= TD[1,6]
* TD2= TD1:"..."
    SELECTED = ""
    KEY.LIST = ""
*TEXT = TD2 ; CALL REM

    LOCATE "PROCESSING.DATE" IN ENQ<2,1> SETTING FT.POS THEN
        DEBIT.DATE = ENQ<4,FT.POS>
    END
    XXX = FIELD(DEBIT.DATE,' ',1)
    YYY = FIELD(DEBIT.DATE,' ',2)
    TEXT = XXX ; CALL REM
    TEXT = YYY ; CALL REM

    T.SEL="SELECT FBNK.FUNDS.TRANSFER$HIS WITH PROCESSING.DATE GE " :XXX: " AND PROCESSING.DATE LE " :YYY: " AND TRANSACTION.TYPE LIKE ...OT... AND CO.CODE EQ " : COMP : " AND RECORD.STATUS NE 'REVE' AND (DEBIT.CURRENCY EQ 'EGP' OR CREDIT.CURRENCY EQ 'EGP') BY PROCESSING.DATE "

*****  T.SEL="SELECT FBNK.FUNDS.TRANSFER$HIS WITH PROCESSING.DATE LIKE 200909... AND TRANSACTION.TYPE LIKE ...IT... AND CO.CODE EQ EG0010005 AND (DEBIT.CURRENCY NE 'EGP' OR CREDIT.CURRENCY NE 'EGP') BY PROCESSING.DATE"
    CALL EB.READLIST(T.SEL,KEY.LIST,"",SELECTED,ER.MSG)
    TEXT = SELECTED ; CALL REM
*********************

    IF SELECTED THEN
        FOR ENQ.LP = 1 TO SELECTED
            ZZ = KEY.LIST<ENQ.LP>[1,12]:';2'
            CALL F.READ( FN.FT,ZZ, R.FT, F.FT, ETEXT.R)
            IF ETEXT.R THEN
                ENQ<2,ENQ.LP> = '@ID'
                ENQ<3,ENQ.LP> = 'EQ'
                ENQ<4,ENQ.LP> = KEY.LIST<ENQ.LP>
            END
        NEXT ENQ.LP
    END ELSE
        ENQ<2,2> = '@ID'
        ENQ<3,2> = 'EQ'
        ENQ<4,2> = 'DUMMY'
**        ENQ.ERROR = "NO RECORDS FOUND"
    END

**********************
    RETURN
END
