****Created by Nessreen Ahmed 22/9/2013*****
*-----------------------------------------------------------------------------
* <Rating>-1</Rating>
*-----------------------------------------------------------------------------
    SUBROUTINE MAST.MERGE.TEXT

    $INCLUDE T24.BP I_COMMON
    $INCLUDE T24.BP I_EQUATE

   TEXT = 'HELLO' ; CALL REM
    CALL !HUSHIT(0)
  *  COMAND = "sh /home/visa/NESRO/shaism.sh"
     COMAND = "sh NESRO/mstr/shaism.sh"
    EXECUTE COMAND
   TEXT = 'text files merged' ; CALL REM
END
