    SUBROUTINE SCB.COL.COMPANY.HISTORY
    $INCLUDE T24.BP I_COMMON
    $INCLUDE T24.BP I_EQUATE
    $INCLUDE T24.BP I_F.COLLATERAL
    $INCLUDE T24.BP I_F.CUSTOMER
    $INCLUDE TEMENOS.BP I_CU.LOCAL.REFS
    $INCLUDE TEMENOS.BP I_CO.LOCAL.REFS

    FN.CU = 'FBNK.CUSTOMER' ; F.CU = ''
    CALL OPF(FN.CU,F.CU)

    FN.COL = 'FBNK.COLLATERAL$HIS' ; F.COL = ''
    CALL OPF(FN.COL,F.COL)

    KEY.LIST="" ; SELECTED="" ;  ER.MSG=""

    TD = TODAY[3,6]:"..."
    T.SEL = "SELECT ":FN.COL:" WITH DATE.TIME LIKE ":TD:" AND COMPANY.BOOK UNLIKE EG..."
    CALL EB.READLIST(T.SEL,KEY.LIST,"",SELECTED,ER.MSG)
    IF SELECTED THEN
        FOR I = 1 TO SELECTED
            COMP.BOOK = ''
            CALL F.READ(FN.COL,KEY.LIST<I>,R.COL,F.COL,E1)
            CUST.NO = FIELD(KEY.LIST<I>,".",1)

            CALL DBR ('CUSTOMER':@FM:EB.CUS.COMPANY.BOOK,CUST.NO,COMP.BOOK)
            R.COL<COLL.LOCAL.REF,COLR.COMPANY.BOOK> = COMP.BOOK
**WRITE  R.COL TO F.COL , KEY.LIST<I> ON ERROR
**    PRINT "CAN NOT WRITE RECORD":KEY.LIST<I>:"TO" :FN.COL
**END
            CALL F.WRITE(FN.COL,KEY.LIST<I>,R.COL)
        NEXT I
    END
    RETURN
END
