*-----------------------------------------------------------------------------
* <Rating>-3</Rating>
*-----------------------------------------------------------------------------
    SUBROUTINE VIR.CLM.DAT

    $INCLUDE T24.BP I_COMMON
    $INCLUDE T24.BP I_EQUATE
    $INCLUDE T24.BP I_F.LD.LOANS.AND.DEPOSITS
    $INCLUDE TEMENOS.BP I_LD.LOCAL.REFS


    NO.M = DCOUNT(R.NEW(LD.CHRG.CODE),VM)
    FOR  I = 1 TO NO.M
        R.NEW(LD.CHRG.CLAIM.DATE)<1,I> = TODAY
*       R.NEW(LD.CHRG.BOOKED.ON)<1,I> = TODAY

    NEXT I
*    R.NEW(LD.INT.START.DATE) = TODAY
*    R.NEW(LD.D.D.START.DATE) = TODAY

    CALL REBUILD.SCREEN

    RETURN
END
