*-----------------------------------------------------------------------------
* <Rating>-1</Rating>
*-----------------------------------------------------------------------------
    SUBROUTINE VISA.MERGE.TEXT

    $INCLUDE T24.BP I_COMMON
    $INCLUDE T24.BP I_EQUATE

   TEXT = 'HELLO' ; CALL REM
    CALL !HUSHIT(0)
   * COMAND = "sh /IMPL/CHECK/CAIRO/NT24/bnk/bnk.data/OFS/OFS.L.C/shaism.sh"
    COMAND = "sh NESRO/shaism.sh"
    EXECUTE COMAND
   TEXT = 'ENDOFCOMM' ; CALL REM
END
