*-----------------------------------------------------------------------------
* <Rating>-11</Rating>
*-----------------------------------------------------------------------------
***** INGY&DALIA_ SCB *****

SUBROUTINE VVR.LC.LINK.DATA


$INCLUDE T24.BP I_COMMON
$INCLUDE T24.BP I_EQUATE
$INCLUDE T24.BP I_F.LETTER.OF.CREDIT


*IF MESSAGE = 'VAL' THEN
       LINK.DATA<1> = APPLICATION :PGM.VERSION
       INPUT.BUFFER =C.U:' LD.LOANS.AND.DEPOSITS,SCB.LOANS.LC I F3 ' 

*END

RETURN
END
