*-----------------------------------------------------------------------------
* <Rating>0</Rating>
*-----------------------------------------------------------------------------
**---------INGY ---------**

SUBROUTINE VVR.FT.EQ.DEB.REF

* IF THE FUNC IS INPUT THEN  DEFAULT THE FIELD DEBIT.THEIR.REF WITH THE FIELD CREDIT.THEIR.REF

$INCLUDE T24.BP I_COMMON
$INCLUDE T24.BP I_EQUATE
$INCLUDE T24.BP I_F.FUNDS.TRANSFER

 IF COMI THEN
    R.NEW( FT.CREDIT.THEIR.REF) = COMI
    CALL REBUILD.SCREEN

END
RETURN
END
